{
  "author": "Rickard Magnusson",
  "classifications": [ "Web", "MVC" ],
  "name": "BOOTPROJECT",
  "defaultName": "WebApplication1",
  "identity": "madsk.miniblog.core",
  "groupIdentity": "madsk.miniblog.core",
  "shortName": "miniblog",
  "sources": [
    {
      "exclude": [ "Properties/**/*", "**/[Bb]in/**", "**/[Oo]bj/**", ".template.config/**/*", "**/*.filelist", "**/*.user", "**/*.lock.json" ]
    }
  ],
  "tags": {
    "language": "C#",
    "type": "project"
  },
  "sourceName": "Bootproject",
  "preferNameDirectory": true,
  "primaryOutputs": [ { "path": "Miniblog.Core.csproj" } ],
  "symbols": {
    "Framework": {
      "type": "parameter",
      "description": "The target framework for the project.",
      "datatype": "choice",
      "choices": [
        {
          "choice": "netcoreapp2.0",
          "description": "Target netcoreapp2.0"
        }
      ],
      "defaultValue": "netcoreapp2.0"
    }
  }
}